%YAML 1.1
%TAG !u! tag:unity3d.com,2011:
--- !u!74 &7400000
AnimationClip:
  m_ObjectHideFlags: 0
  m_CorrespondingSourceObject: {fileID: 0}
  m_PrefabInstance: {fileID: 0}
  m_PrefabAsset: {fileID: 0}
  m_Name: PirataPC_FIN
  serializedVersion: 6
  m_Legacy: 1
  m_Compressed: 0
  m_UseHighQualityCurve: 1
  m_RotationCurves: []
  m_CompressedRotationCurves: []
  m_EulerCurves: []
  m_PositionCurves: []
  m_ScaleCurves: []
  m_FloatCurves: []
  m_PPtrCurves:
  - curve:
    - time: 0
      value: {fileID: 21300000, guid: 1a3fb118b17c9784199362b0acc30f7f, type: 3}
    - time: 0.13333334
      value: {fileID: 21300000, guid: cecbc70072d78e9459f320a3869d65ca, type: 3}
    - time: 0.28333333
      value: {fileID: 21300000, guid: fa62f3cb9382add478cc62185a355518, type: 3}
    - time: 0.41666666
      value: {fileID: 21300000, guid: 883672df1bb2c9c4c8cbd43c8e5be458, type: 3}
    - time: 0.55
      value: {fileID: 21300000, guid: f172842448a19834b95181759756bf04, type: 3}
    - time: 0.7
      value: {fileID: 21300000, guid: bfca3b5c2616f5743885ce63c7318937, type: 3}
    - time: 0.8333333
      value: {fileID: 21300000, guid: 51ac8a7f51999ba40b3e41734628ca92, type: 3}
    attribute: m_Sprite
    path: 
    classID: 212
    script: {fileID: 0}
  m_SampleRate: 60
  m_WrapMode: 0
  m_Bounds:
    m_Center: {x: 0, y: 0, z: 0}
    m_Extent: {x: 0, y: 0, z: 0}
  m_ClipBindingConstant:
    genericBindings: []
    pptrCurveMapping: []
  m_AnimationClipSettings:
    serializedVersion: 2
    m_AdditiveReferencePoseClip: {fileID: 0}
    m_AdditiveReferencePoseTime: 0
    m_StartTime: 0
    m_StopTime: 0.84999996
    m_OrientationOffsetY: 0
    m_Level: 0
    m_CycleOffset: 0
    m_HasAdditiveReferencePose: 0
    m_LoopTime: 1
    m_LoopBlend: 0
    m_LoopBlendOrientation: 0
    m_LoopBlendPositionY: 0
    m_LoopBlendPositionXZ: 0
    m_KeepOriginalOrientation: 0
    m_KeepOriginalPositionY: 1
    m_KeepOriginalPositionXZ: 0
    m_HeightFromFeet: 0
    m_Mirror: 0
  m_EditorCurves: []
  m_EulerEditorCurves: []
  m_HasGenericRootTransform: 0
  m_HasMotionFloatCurves: 0
  m_Events: []
